01;Barcelona;123400;12333;Catalana
46;Valencia;10000;2000;Valenciana
03;Alicante;23232;12121;Valenciana
05;Castellón;12300;1233;Valenciana
09;VALLADOLID;1212;1212;CASTILLA Y LEON
10;CÁDIZ;2334;121;ANDALUCIA
;;;;
4545;bbbb;12000;12121;sadasd
